Gov 50 Final Project
…
library(tidyverse)
turnout <- read_csv("~/Desktop/Gov 50/General-Election-Data-master/Voter Turnout GE12, GE13, GE14 - Sheet1.csv")
turnout

# A tibble: 222 × 15
   STATE  PARLIAMENT…¹ PARLI…² GE12 …³ GE 12…⁴ GE 12…⁵ GE13 …⁶ GE13 …⁷
   <chr>  <chr>        <chr>   <chr>   <chr>   <chr>     <dbl>   <dbl>
 1 PERLIS P.001        PADANG… 36613   29310   80.05%    41974   36142
 2 PERLIS P.002        KANGAR  43591   34946   80.17%    51207   43431
 3 PERLIS P.003        ARAU    39877   33276   83.45%    43876   38439
 4 KEDAH  P.004        LANGKA… 29567   23273   78.71%    37536   32096
 5 KEDAH  P.005        JERLUN  45513   37297   81.95%    52383   45899
 6 KEDAH  P.006        KUBANG… 53323   42353   79.43%    65550   57296
 7 KEDAH  P.007        PADANG… 35403   30445   86.00%    41960   37904
 8 KEDAH  P.008        POKOK … 69631   55318   79.44%    80714   69524
 9 KEDAH  P.009        ALOR S… 58957   43206   73.28%    69009   57912
10 KEDAH  P.010        KUALA … 83132   65750   79.09%    95328   82253
# … with 212 more rows, 7 more variables:
#   `GE 13 VOTER TURNOUT (2013) %` <chr>,
#   `FEDERAL CONSTITUENCY NAME/BOUNDARY CHANGE SINCE 2013` <chr>,
#   `PARLIAMENT CODE (GE14)` <chr>, `PARLIAMENT (GE14)` <chr>,
#   `GE14 VOTERS (2018)` <dbl>, `GE 14 VOTER TURNOUT (2018)` <dbl>,
#   `GE 14 VOTER TURNOUT (2018) %` <chr>, and abbreviated variable
#   names ¹​`PARLIAMENT CODE`, ²​PARLIAMENT, ³​`GE12 VOTERS (2008)`, …

ge14 <- read_csv("~/Desktop/Gov 50/Election-Results-2018 - Parlimen_Results_By_Candidate.csv")
ge14[is.na(ge14)] = 0
ge14$`% of total Votes` <- gsub("%", "", ge14$`% of total Votes`)
ge14$`% of total Votes` <- as.numeric(ge14$`% of total Votes`)

ge14

# A tibble: 687 × 13
   `Seat ID` Seat Na…¹ party…² Candi…³ Candi…⁴ Coali…⁵ Votes…⁶ Total…⁷
   <chr>     <chr>       <dbl> <chr>   <chr>   <chr>     <dbl>   <dbl>
 1 P.001     PADANG B…       0 IZIZAM… PKR     Harapan   13594   36500
 2 P.001     PADANG B…       1 DATUK … BN      BN        15032   36500
 3 P.001     PADANG B…       0 USTAZ … PAS     PAS        7874   36500
 4 P.002     KANGAR          0 AMIN A… PKR     Harapan   20909   44680
 5 P.002     KANGAR          0 RAMLI … BN      BN        15306   44680
 6 P.002     KANGAR          0 USTAZ … PAS     PAS        8465   44680
 7 P.003     ARAU            0 USTAZ … PAS     PAS       11362   39600
 8 P.003     ARAU            0 DATO' … PKR     Harapan   11691   39600
 9 P.003     ARAU            0 SHAHID… BN      BN        16547   39600
10 P.004     LANGKAWI        0 ZUBIR … PAS     PAS        5512   34527
# … with 677 more rows, 5 more variables: `% of total Votes` <dbl>,
#   `Candidate Win` <dbl>, Gender <chr>, Status <chr>,
#   Pekerjaan <chr>, and abbreviated variable names ¹​`Seat Name`,
#   ²​party_switch, ³​`Candidate Name`, ⁴​`Candidate Party`, ⁵​Coalition,
#   ⁶​`Votes for Candidate`, ⁷​`Total Votes Cast`

turnout$`GE 13 VOTER TURNOUT (2013) %` <- gsub("%", "", turnout$`GE 13 VOTER TURNOUT (2013) %`)
turnout$`GE 13 VOTER TURNOUT (2013) %` <- as.numeric(turnout$`GE 13 VOTER TURNOUT (2013) %`)

turnout$`GE 14 VOTER TURNOUT (2018) %` <- gsub("%", "", turnout$`GE 14 VOTER TURNOUT (2018) %`)
turnout$`GE 14 VOTER TURNOUT (2018) %` <- as.numeric(turnout$`GE 14 VOTER TURNOUT (2018) %`)

turnout$`GE 12 VOTER TURNOUT (2008) %` <- gsub("%", "", turnout$`GE 12 VOTER TURNOUT (2008) %`)
turnout$`GE 12 VOTER TURNOUT (2008) %` <- as.numeric(turnout$`GE 12 VOTER TURNOUT (2008) %`)
turnout

# A tibble: 222 × 15
   STATE  PARLIAMENT…¹ PARLI…² GE12 …³ GE 12…⁴ GE 12…⁵ GE13 …⁶ GE13 …⁷
   <chr>  <chr>        <chr>   <chr>   <chr>     <dbl>   <dbl>   <dbl>
 1 PERLIS P.001        PADANG… 36613   29310      80.0   41974   36142
 2 PERLIS P.002        KANGAR  43591   34946      80.2   51207   43431
 3 PERLIS P.003        ARAU    39877   33276      83.4   43876   38439
 4 KEDAH  P.004        LANGKA… 29567   23273      78.7   37536   32096
 5 KEDAH  P.005        JERLUN  45513   37297      82.0   52383   45899
 6 KEDAH  P.006        KUBANG… 53323   42353      79.4   65550   57296
 7 KEDAH  P.007        PADANG… 35403   30445      86     41960   37904
 8 KEDAH  P.008        POKOK … 69631   55318      79.4   80714   69524
 9 KEDAH  P.009        ALOR S… 58957   43206      73.3   69009   57912
10 KEDAH  P.010        KUALA … 83132   65750      79.1   95328   82253
# … with 212 more rows, 7 more variables:
#   `GE 13 VOTER TURNOUT (2013) %` <dbl>,
#   `FEDERAL CONSTITUENCY NAME/BOUNDARY CHANGE SINCE 2013` <chr>,
#   `PARLIAMENT CODE (GE14)` <chr>, `PARLIAMENT (GE14)` <chr>,
#   `GE14 VOTERS (2018)` <dbl>, `GE 14 VOTER TURNOUT (2018)` <dbl>,
#   `GE 14 VOTER TURNOUT (2018) %` <dbl>, and abbreviated variable
#   names ¹​`PARLIAMENT CODE`, ²​PARLIAMENT, ³​`GE12 VOTERS (2008)`, …

library(dplyr)

ge14 <- full_join(turnout, ge14, by = c("PARLIAMENT CODE" = "Seat ID"))
ge14

# A tibble: 687 × 27
   STATE  PARLIAMENT…¹ PARLI…² GE12 …³ GE 12…⁴ GE 12…⁵ GE13 …⁶ GE13 …⁷
   <chr>  <chr>        <chr>   <chr>   <chr>     <dbl>   <dbl>   <dbl>
 1 PERLIS P.001        PADANG… 36613   29310      80.0   41974   36142
 2 PERLIS P.001        PADANG… 36613   29310      80.0   41974   36142
 3 PERLIS P.001        PADANG… 36613   29310      80.0   41974   36142
 4 PERLIS P.002        KANGAR  43591   34946      80.2   51207   43431
 5 PERLIS P.002        KANGAR  43591   34946      80.2   51207   43431
 6 PERLIS P.002        KANGAR  43591   34946      80.2   51207   43431
 7 PERLIS P.003        ARAU    39877   33276      83.4   43876   38439
 8 PERLIS P.003        ARAU    39877   33276      83.4   43876   38439
 9 PERLIS P.003        ARAU    39877   33276      83.4   43876   38439
10 KEDAH  P.004        LANGKA… 29567   23273      78.7   37536   32096
# … with 677 more rows, 19 more variables:
#   `GE 13 VOTER TURNOUT (2013) %` <dbl>,
#   `FEDERAL CONSTITUENCY NAME/BOUNDARY CHANGE SINCE 2013` <chr>,
#   `PARLIAMENT CODE (GE14)` <chr>, `PARLIAMENT (GE14)` <chr>,
#   `GE14 VOTERS (2018)` <dbl>, `GE 14 VOTER TURNOUT (2018)` <dbl>,
#   `GE 14 VOTER TURNOUT (2018) %` <dbl>, `Seat Name` <chr>,
#   party_switch <dbl>, `Candidate Name` <chr>, …
…
